\relax 
\catcode `"\active 
\catcode `<\active 
\catcode `>\active 
\@nameuse{es@quoting}
\select@language{spanish}
\@writefile{toc}{\select@language{spanish}}
\@writefile{lof}{\select@language{spanish}}
\@writefile{lot}{\select@language{spanish}}
\newlabel{eq1}{{1}{1}}
\newlabel{eq2}{{2}{1}}
\newlabel{eq3}{{3}{1}}
\newlabel{eq4}{{4}{1}}
\bibstyle{plain}
\bibcite{purcell}{1}
\bibcite{Freed}{2}
\bibcite{gill}{3}
\@writefile{lof}{\contentsline {figure}{\numberline {1}{\ignorespaces \relax \fontsize  {10}{12}\selectfont  \abovedisplayskip 10\p@ plus2\p@ minus5\p@ \abovedisplayshortskip \z@ plus3\p@ \belowdisplayshortskip 6\p@ plus3\p@ minus3\p@ \def \leftmargin \leftmargini \parsep 5\p@ plus2.5\p@ minus\p@ \topsep 10\p@ plus4\p@ minus6\p@ \itemsep 5\p@ plus2.5\p@ minus\p@ {\leftmargin \leftmargini \topsep 6\p@ plus2\p@ minus2\p@ \parsep 3\p@ plus2\p@ minus\p@ \itemsep \parsep }\belowdisplayskip \abovedisplayskip Esquema experimental propuesto. La bandeja de material aislante contiene agua. A y B representan los electrodos met\'alicos. En el punto $P$ de coordenadas $(x,y)$ se mide el valor del potencial el\'ectrico $V(x,y)$. a. Configuraci\'on de placas paralelas. b. Otras configuraciones: conductor o aislador entre los electrodos.}}{3}}
\newlabel{fi1}{{1}{3}}
