\relax 
\catcode `"\active 
\catcode `<\active 
\catcode `>\active 
\@nameuse{es@quoting}
\citation{Alonso1998}
\citation{Purcell1988}
\citation{Reitz1996}
\citation{Trelles1984}
\citation{Reitz1996}
\bibdata{faradayNotes,Bibliografia}
\bibcite{Alonso1998}{{1}{}{{}}{{}}}
\bibcite{Purcell1988}{{2}{}{{}}{{}}}
\bibcite{Reitz1996}{{3}{}{{}}{{}}}
\bibcite{Trelles1984}{{4}{}{{}}{{}}}
\bibstyle{unsrt}
\providecommand\NAT@force@numbers{}\NAT@force@numbers
\newlabel{FirstPage}{{}{1}{}{}{}}
\@writefile{toc}{\contentsline {title}{Electromagnet\IeC {\'\i }smo: inducci\IeC {\'o}n de Faraday}{1}{}}
\@writefile{toc}{\contentsline {abstract}{Resumen}{1}{}}
\@writefile{toc}{\contentsline {section}{\numberline {I}Ley de inducci\IeC {\'o}n de Faraday}{1}{}}
\@writefile{toc}{\contentsline {section}{\numberline {II}Inducci\IeC {\'o}n de un im\IeC {\'a}n en una bobina}{1}{}}
\@writefile{toc}{\contentsline {section}{\numberline {III}Inducci\IeC {\'o}n entre dos bobinas}{1}{}}
\@writefile{lof}{\contentsline {figure}{\numberline {1}{\ignorespaces Esquema del dispositivo experimental propuesto para la segunda parte de la experiencia.}}{1}{}}
\newlabel{fig:1}{{1}{1}{}{}{}}
\@writefile{toc}{\contentsline {section}{\numberline {}Referencias}{1}{}}
\newlabel{LastBibItem}{{4}{1}{}{}{}}
\newlabel{LastPage}{{}{1}{}{}{}}
