\relax 
\catcode `"\active 
\catcode `<\active 
\catcode `>\active 
\@nameuse{es@quoting}
\citation{Gil01}
\citation{Gil01}
\citation{Hecht98}
\bibcite{Gil01}{{1}{}{{}}{{}}}
\bibcite{Hecht98}{{2}{}{{}}{{}}}
\bibdata{polarizacionNotes}
\bibstyle{aipnum4-1}
\citation{REVTEX41Control}
\citation{aip41Control}
\providecommand\NAT@force@numbers{}\NAT@force@numbers
\newlabel{FirstPage}{{}{1}{}{}{}}
\@writefile{toc}{\contentsline {title}{Polarizaci\IeC {\'o}n}{1}{}}
\@writefile{toc}{\contentsline {abstract}{Resumen}{1}{}}
\@writefile{toc}{\contentsline {section}{\numberline {I}Ley de Malus}{1}{}}
\@writefile{lof}{\contentsline {figure}{\numberline {1}{\ignorespaces Esquema del dispositivo experimental empleado para estudiar el fen\IeC {\'o}meno de la luz polarizada. Reproducido de \cite  {Gil01} }}{1}{}}
\newlabel{fig:polarizador}{{1}{1}{}{}{}}
\@writefile{toc}{\contentsline {section}{\numberline {II}Experimento}{1}{}}
\@writefile{toc}{\contentsline {subsection}{\numberline {A}\(I(\theta )\) vs. \(theta\)}{1}{}}
\@writefile{toc}{\contentsline {section}{\numberline {}Referencias}{1}{}}
\newlabel{LastBibItem}{{2}{1}{}{}{}}
\newlabel{LastPage}{{}{1}{}{}{}}
