\relax 
\catcode `"\active 
\catcode `<\active 
\catcode `>\active 
\@nameuse{es@quoting}
\citation{Hecht98}
\bibcite{Hecht98}{{1}{}{{}}{{}}}
\bibdata{difraccionNotes}
\bibstyle{aipnum4-1}
\citation{REVTEX41Control}
\citation{aip41Control}
\providecommand\NAT@force@numbers{}\NAT@force@numbers
\newlabel{FirstPage}{{}{1}{}{}{}}
\@writefile{toc}{\contentsline {title}{Difracci\IeC {\'o}n}{1}{}}
\@writefile{toc}{\contentsline {abstract}{Resumen}{1}{}}
\@writefile{toc}{\contentsline {section}{\numberline {I}Patr\IeC {\'o}n de difracci\IeC {\'o}n unidimensional}{1}{}}
\@writefile{toc}{\contentsline {subsection}{\numberline {A}Ancho de una ranura}{1}{}}
\@writefile{lof}{\contentsline {figure}{\numberline {1}{\ignorespaces Esquema del dispositivo experimental. }}{1}{}}
\newlabel{fig:ranura}{{1}{1}{}{}{}}
\@writefile{toc}{\contentsline {subsection}{\numberline {B}Intensidad del patr\IeC {\'o}n}{1}{}}
\@writefile{toc}{\contentsline {section}{\numberline {}Referencias}{1}{}}
\newlabel{LastBibItem}{{1}{1}{}{}{}}
\newlabel{LastPage}{{}{1}{}{}{}}
