\relax 
\catcode `"\active 
\catcode `<\active 
\catcode `>\active 
\@nameuse{es@quoting}
\citation{Hecht1986}
\bibdata{interferenciaNotes,Bibliografia}
\bibcite{Hecht1986}{{1}{}{{}}{{}}}
\bibstyle{unsrt}
\providecommand\NAT@force@numbers{}\NAT@force@numbers
\newlabel{FirstPage}{{}{1}{}{}{}}
\@writefile{toc}{\contentsline {title}{Interferencia}{1}{}}
\@writefile{toc}{\contentsline {abstract}{Resumen}{1}{}}
\@writefile{toc}{\contentsline {section}{\numberline {I}Biprisma de Fresnel}{1}{}}
\newlabel{eq:1}{{1}{1}{}{}{}}
\@writefile{lof}{\contentsline {figure}{\numberline {1}{\ignorespaces Esquema del montaje sugerido para observar el fen\IeC {\'o}meno de interferencia entre dos fuentes puntuales (virtuales).}}{1}{}}
\newlabel{fig:biprisma}{{1}{1}{}{}{}}
\@writefile{toc}{\contentsline {section}{\numberline {II}Desarrollo de la experiencia}{1}{}}
\@writefile{toc}{\contentsline {subsection}{\numberline {A}Calibraci\IeC {\'o}n del microscopio}{1}{}}
\@writefile{toc}{\contentsline {subsection}{\numberline {B}Medici\IeC {\'o}n de la longitud de onda de la l\IeC {\'a}mpara de Sodio}{1}{}}
\@writefile{toc}{\contentsline {section}{\numberline {}Referencias}{1}{}}
\newlabel{LastBibItem}{{1}{1}{}{}{}}
\newlabel{LastPage}{{}{1}{}{}{}}
