\relax 
\providecommand\hyper@newdestlabel[2]{}
\catcode `"\active 
\catcode `<\active 
\catcode `>\active 
\@nameuse{es@quoting}
\providecommand\HyperFirstAtBeginDocument{\AtBeginDocument}
\HyperFirstAtBeginDocument{\ifx\hyper@anchor\@undefined
\global\let\oldcontentsline\contentsline
\gdef\contentsline#1#2#3#4{\oldcontentsline{#1}{#2}{#3}}
\global\let\oldnewlabel\newlabel
\gdef\newlabel#1#2{\newlabelxx{#1}#2}
\gdef\newlabelxx#1#2#3#4#5#6{\oldnewlabel{#1}{{#2}{#3}}}
\AtEndDocument{\ifx\hyper@anchor\@undefined
\let\contentsline\oldcontentsline
\let\newlabel\oldnewlabel
\fi}
\fi}
\global\let\hyper@last\relax 
\gdef\HyperFirstAtBeginDocument#1{#1}
\providecommand\HyField@AuxAddToFields[1]{}
\providecommand\HyField@AuxAddToCoFields[2]{}
\citation{Alonso1998}
\citation{Purcell1988}
\citation{Reitz1996}
\citation{Trelles1984}
\bibdata{magnetismoNotes,Bibliografia}
\bibcite{Alonso1998}{{1}{}{{}}{{}}}
\bibcite{Purcell1988}{{2}{}{{}}{{}}}
\bibcite{Reitz1996}{{3}{}{{}}{{}}}
\bibcite{Trelles1984}{{4}{}{{}}{{}}}
\bibstyle{unsrt}
\providecommand\NAT@force@numbers{}\NAT@force@numbers
\newlabel{FirstPage}{{}{1}{}{section*.1}{}}
\@writefile{toc}{\contentsline {title}{Campo magn\IeC {\'e}tico terrestre}{1}{section*.2}}
\@writefile{toc}{\contentsline {abstract}{Resumen}{1}{section*.1}}
\@writefile{toc}{\contentsline {section}{\numberline {I}Sonda Hall}{1}{section*.3}}
\@writefile{toc}{\contentsline {subsection}{\numberline {A}Calibraci\IeC {\'o}n de la sonda Hall}{1}{section*.4}}
\@writefile{toc}{\contentsline {section}{\numberline {II}Magnitud local del campo magn\IeC {\'e}tico terrestre}{1}{section*.5}}
\@writefile{toc}{\contentsline {subsection}{\numberline {A}Medici\IeC {\'o}n empleando una sonda Hall}{1}{section*.6}}
\@writefile{toc}{\contentsline {subsection}{\numberline {B}Medici\IeC {\'o}n deflectando una br\IeC {\'u}jula}{1}{section*.7}}
\@writefile{toc}{\contentsline {section}{\numberline {III}Unidades}{1}{section*.8}}
\@writefile{toc}{\contentsline {section}{\numberline {}Referencias}{1}{section*.9}}
\newlabel{LastBibItem}{{4}{1}{}{section*.9}{}}
\newlabel{LastPage}{{}{1}{}{}{}}
