\relax 
\catcode `"\active 
\catcode `<\active 
\catcode `>\active 
\@nameuse{es@quoting}
\newlabel{FirstPage}{{}{1}{}{}{}}
\@writefile{toc}{\contentsline {title}{Microscopio}{1}{}}
\@writefile{toc}{\contentsline {abstract}{Resumen}{1}{}}
\@writefile{toc}{\contentsline {section}{\numberline {I}\IeC {\'U}nica lente: lupa}{1}{}}
\newlabel{eq:Gauss}{{1}{1}{}{}{}}
\@writefile{lof}{\contentsline {figure}{\numberline {1}{\ignorespaces Esquema del dispositivo con una lente. Definici\IeC {\'o}n de las distancias relevantes y m\IeC {\'e}todo de trazado de rayos.}}{1}{}}
\newlabel{fig:lente}{{1}{1}{}{}{}}
\@writefile{toc}{\contentsline {section}{\numberline {II}Ocular y objetivo: microscopio compuesto}{1}{}}
\@writefile{lof}{\contentsline {figure}{\numberline {2}{\ignorespaces Esquema de un microscopio compuesto. Definici\IeC {\'o}n de las distancias relevantes.}}{1}{}}
\newlabel{fig:compuesto}{{2}{1}{}{}{}}
\@writefile{toc}{\contentsline {subsection}{\numberline {A}Aumento}{1}{}}
\newlabel{eq:eficaz}{{2}{1}{}{}{}}
\newlabel{eq:tangentau}{{3}{1}{}{}{}}
\bibcite{Gil01}{{1}{}{{}}{{}}}
\bibcite{Hecht98}{{2}{}{{}}{{}}}
\bibdata{microscopioNotes}
\bibstyle{aipnum4-1}
\citation{REVTEX41Control}
\citation{aip41Control}
\providecommand\NAT@force@numbers{}\NAT@force@numbers
\@writefile{lof}{\contentsline {figure}{\numberline {3}{\ignorespaces \IeC {\'A}ngulo subtendido por un objeto mirado a ojo desnudo a \SI {25}{\centi \metre } de distancia.}}{2}{}}
\newlabel{fig:ocular}{{3}{2}{}{}{}}
\newlabel{eq:semejantes1}{{4}{2}{}{}{}}
\newlabel{eq:tanup}{{5}{2}{}{}{}}
\newlabel{eq:tanu}{{6}{2}{}{}{}}
\newlabel{eq:aumento}{{7}{2}{}{}{}}
\@writefile{toc}{\contentsline {subsection}{\numberline {B}Medici\IeC {\'o}n del aumento}{2}{}}
\newlabel{eq:aumentoExperimental}{{8}{2}{}{}{}}
\@writefile{toc}{\contentsline {section}{\numberline {}Referencias}{2}{}}
\newlabel{LastBibItem}{{2}{2}{}{}{}}
\newlabel{LastPage}{{}{2}{}{}{}}
