\BOOKMARK [1][-]{section.1}{Introducci\363n:}{}% 1
\BOOKMARK [1][-]{section.2}{Actividades:}{}% 2
\BOOKMARK [2][-]{subsection.2.1}{Resistencias}{section.2}% 3
\BOOKMARK [2][-]{subsection.2.2}{Diodos}{section.2}% 4
\BOOKMARK [2][-]{subsection.2.3}{Combinaciones de resistencias}{section.2}% 5
\BOOKMARK [1][-]{section.3}{Materiales:}{}% 6
\BOOKMARK [2][-]{subsection.3.1}{Unidades}{section.3}% 7
