\relax 
\providecommand\hyper@newdestlabel[2]{}
\catcode `"\active 
\catcode `<\active 
\catcode `>\active 
\@nameuse{es@quoting}
\providecommand\HyperFirstAtBeginDocument{\AtBeginDocument}
\HyperFirstAtBeginDocument{\ifx\hyper@anchor\@undefined
\global\let\oldcontentsline\contentsline
\gdef\contentsline#1#2#3#4{\oldcontentsline{#1}{#2}{#3}}
\global\let\oldnewlabel\newlabel
\gdef\newlabel#1#2{\newlabelxx{#1}#2}
\gdef\newlabelxx#1#2#3#4#5#6{\oldnewlabel{#1}{{#2}{#3}}}
\AtEndDocument{\ifx\hyper@anchor\@undefined
\let\contentsline\oldcontentsline
\let\newlabel\oldnewlabel
\fi}
\fi}
\global\let\hyper@last\relax 
\gdef\HyperFirstAtBeginDocument#1{#1}
\providecommand\HyField@AuxAddToFields[1]{}
\providecommand\HyField@AuxAddToCoFields[2]{}
\select@language{spanish}
\@writefile{toc}{\select@language{spanish}}
\@writefile{lof}{\select@language{spanish}}
\@writefile{lot}{\select@language{spanish}}
\@writefile{toc}{\contentsline {section}{\numberline {1}Introducci\IeC {\'o}n:}{1}{section.1}}
\newlabel{ohm}{{1}{1}{Introducción:}{equation.1.1}{}}
\@writefile{toc}{\contentsline {section}{\numberline {2}Actividades:}{1}{section.2}}
\@writefile{lof}{\contentsline {figure}{\numberline {1}{\ignorespaces Ejemplo de fuente de voltaje.}}{1}{figure.1}}
\newlabel{fig1}{{1}{1}{Ejemplo de fuente de voltaje}{figure.1}{}}
\@writefile{toc}{\contentsline {subsection}{\numberline {2.1}Resistencias}{1}{subsection.2.1}}
\@writefile{toc}{\contentsline {subsection}{\numberline {2.2}Diodos}{1}{subsection.2.2}}
\@writefile{toc}{\contentsline {subsection}{\numberline {2.3}Combinaciones de resistencias}{2}{subsection.2.3}}
\@writefile{toc}{\contentsline {section}{\numberline {3}Materiales:}{2}{section.3}}
\@writefile{lof}{\contentsline {figure}{\numberline {2}{\ignorespaces Ejemplo de mult\IeC {\'\i }metro}}{2}{figure.2}}
\newlabel{fig2}{{2}{2}{Ejemplo de multímetro}{figure.2}{}}
\@writefile{lof}{\contentsline {figure}{\numberline {3}{\ignorespaces Configuraciones para conectar el mult\IeC {\'\i }metro como: Izquierda: Volt\IeC {\'\i }metro, y Derecha: Amper\IeC {\'\i }metro}}{2}{figure.3}}
\newlabel{fig3}{{3}{2}{Configuraciones para conectar el multímetro como: Izquierda: Voltímetro, y Derecha: Amperímetro}{figure.3}{}}
\@writefile{toc}{\contentsline {subsection}{\numberline {3.1}Unidades}{2}{subsection.3.1}}
\newlabel{LastPage}{{}{2}{}{page.2}{}}
\xdef\lastpage@lastpage{2}
\xdef\lastpage@lastpageHy{2}
