\relax 
\catcode `"\active 
\catcode `<\active 
\catcode `>\active 
\@nameuse{es@quoting}
\newlabel{FirstPage}{{}{1}{}{}{}}
\@writefile{toc}{\contentsline {title}{Respuesta de la corriente en funci\IeC {\'o}n de la diferencia de potencial}{1}{}}
\@writefile{toc}{\contentsline {abstract}{Resumen}{1}{}}
\@writefile{toc}{\contentsline {section}{\numberline {I}Corriente en funci\IeC {\'o}n de la diferencia de potencial el\IeC {\'e}ctrico}{1}{}}
\newlabel{eq:ohm}{{1}{1}{}{}{}}
\@writefile{toc}{\contentsline {section}{\numberline {II}Actividades}{1}{}}
\@writefile{lof}{\contentsline {figure}{\numberline {1}{\ignorespaces Ejemplo de fuente de voltaje.}}{1}{}}
\newlabel{fig:fuente}{{1}{1}{}{}{}}
\@writefile{toc}{\contentsline {subsection}{\numberline {A}Resistencias}{1}{}}
\@writefile{toc}{\contentsline {subsection}{\numberline {B}Diodos}{1}{}}
\bibdata{IvsVNotes}
\bibstyle{aipnum4-1}
\citation{REVTEX41Control}
\citation{aip41Control}
\@writefile{toc}{\contentsline {subsection}{\numberline {C}Combinaciones de resistencias}{2}{}}
\@writefile{toc}{\contentsline {section}{\numberline {III}Modos del mult\IeC {\'\i }metro}{2}{}}
\@writefile{lof}{\contentsline {figure}{\numberline {2}{\ignorespaces Ejemplo de mult\IeC {\'\i }metro}}{2}{}}
\newlabel{fig:multimetro}{{2}{2}{}{}{}}
\@writefile{lof}{\contentsline {figure}{\numberline {3}{\ignorespaces Configuraciones para conectar el mult\IeC {\'\i }metro como: Izquierda: Volt\IeC {\'\i }metro, y Derecha: Amper\IeC {\'\i }metro}}{2}{}}
\newlabel{fig:configuraciones}{{3}{2}{}{}{}}
\@writefile{toc}{\contentsline {section}{\numberline {IV}Unidades}{2}{}}
\newlabel{LastPage}{{}{2}{}{}{}}
