\relax 
\catcode `"\active 
\catcode `<\active 
\catcode `>\active 
\@nameuse{es@quoting}
\citation{Eccles63}
\citation{Eccles63}
\citation{Eccles63}
\citation{Huxley63}
\citation{Huxley63}
\citation{Huxley63}
\newlabel{FirstPage}{{}{1}{}{}{}}
\@writefile{toc}{\contentsline {title}{Circuito RC}{1}{}}
\@writefile{toc}{\contentsline {abstract}{Resumen}{1}{}}
\@writefile{toc}{\contentsline {section}{\numberline {I}Transporte i\IeC {\'o}nico en membranas biol\IeC {\'o}gicas}{1}{}}
\@writefile{toc}{\contentsline {section}{\numberline {II}Circuito RC}{1}{}}
\@writefile{toc}{\contentsline {subsection}{\numberline {A}Capacitor}{1}{}}
\@writefile{lof}{\contentsline {figure}{\numberline {1}{\ignorespaces  Circuito equivalente de membrana para motoneuronas de gato. (A) Concentraciones intra y extra-celulares aproximadas para los distintos iones y sus correspondientes potenciales de equilibrio, (B) Circuito equivalente de membrana, y (C) Diagrama de los flujos a trav\IeC {\'e}s de la membrana. Reproducido de \citep  {Eccles63} }}{1}{}}
\newlabel{Eccles_fig3}{{1}{1}{}{}{}}
\newlabel{eq:capacitor}{{1}{1}{}{}{}}
\newlabel{eq:unidades}{{2}{1}{}{}{}}
\@writefile{toc}{\contentsline {section}{\numberline {III}Carga y descarga de un capacitor}{1}{}}
\@writefile{lof}{\contentsline {figure}{\numberline {2}{\ignorespaces  Circuito equivalente de membrana para el ax\IeC {\'o}n gigante del calamar. Reproducido de \citep  {Huxley63} }}{2}{}}
\newlabel{Huxley_fig6}{{2}{2}{}{}{}}
\@writefile{lof}{\contentsline {figure}{\numberline {3}{\ignorespaces Esquema de capacitor de placas paralelas.}}{2}{}}
\newlabel{fig:1}{{3}{2}{}{}{}}
\@writefile{lof}{\contentsline {figure}{\numberline {4}{\ignorespaces Esquema del circuito RC empleado.}}{2}{}}
\newlabel{fig:circuitoRC}{{4}{2}{}{}{}}
\newlabel{eq:erste}{{3}{2}{}{}{}}
\newlabel{eq:temps}{{4}{2}{}{}{}}
\newlabel{corriente}{{5}{2}{}{}{}}
\newlabel{eq:ecuacionRC}{{6}{2}{}{}{}}
\newlabel{sc_particular}{{7}{2}{}{}{}}
\newlabel{sc_homogenea}{{8}{2}{}{}{}}
\newlabel{eq:qcarga}{{10}{2}{}{}{}}
\newlabel{eq:icarga}{{11}{2}{}{}{}}
\@writefile{toc}{\contentsline {section}{\numberline {IV}Circuito del experimento}{2}{}}
\@writefile{lof}{\contentsline {figure}{\numberline {5}{\ignorespaces Circuito RC. Dos posibles configuraciones: (1) conectado a la fuente de tensi\IeC {\'o}n, y (2) al desconectar la fuente. $V_{R}$ y $V_{C}$ indican las mediciones de diferencia de potencial sobre cada uno de los elementos.}}{3}{}}
\newlabel{fig:2}{{5}{3}{}{}{}}
\newlabel{eq:VCcarga}{{12}{3}{}{}{}}
\newlabel{eq:VRcarga}{{13}{3}{}{}{}}
\@writefile{toc}{\contentsline {section}{\numberline {V}Actividades}{3}{}}
\@writefile{toc}{\contentsline {subsection}{\numberline {A}Fuente}{3}{}}
\@writefile{toc}{\contentsline {subsection}{\numberline {B}Medici\IeC {\'o}n de la \(\Delta V\)}{3}{}}
\@writefile{toc}{\contentsline {subsection}{\numberline {C}Procedimiento}{3}{}}
\bibcite{Eccles63}{{1}{}{{}}{{}}}
\bibcite{Huxley63}{{2}{}{{}}{{}}}
\bibdata{rcNotes}
\bibstyle{aipnum4-1}
\citation{REVTEX41Control}
\citation{aip41Control}
\providecommand\NAT@force@numbers{}\NAT@force@numbers
\@writefile{toc}{\contentsline {section}{\numberline {VI}Unidades}{4}{}}
\@writefile{toc}{\contentsline {section}{\numberline {}Referencias}{4}{}}
\newlabel{LastBibItem}{{2}{4}{}{}{}}
\newlabel{LastPage}{{}{4}{}{}{}}
