\BOOKMARK [1][-]{section.1}{Actividades}{}% 1
\BOOKMARK [2][-]{subsection.1.1}{Fuente}{section.1}% 2
\BOOKMARK [2][-]{subsection.1.2}{Mediciones}{section.1}% 3
\BOOKMARK [2][-]{subsection.1.3}{Medidas}{section.1}% 4
\BOOKMARK [1][-]{section.2}{Ap\351ndices}{}% 5
\BOOKMARK [2][-]{subsection.2.1}{Analog\355a del circuito RC con membranas biol\363gicas}{section.2}% 6
\BOOKMARK [2][-]{subsection.2.2}{Unidades}{section.2}% 7
