\relax 
\catcode `"\active 
\catcode `<\active 
\catcode `>\active 
\@nameuse{es@quoting}
\newlabel{FirstPage}{{}{1}{}{}{}}
\@writefile{toc}{\contentsline {title}{Electrost\IeC {\'a}tica: mapeando un campo el\IeC {\'e}ctrico}{1}{}}
\@writefile{toc}{\contentsline {abstract}{Resumen}{1}{}}
\@writefile{toc}{\contentsline {section}{\numberline {I}Campo y potencial el\IeC {\'e}ctrico}{1}{}}
\newlabel{travail}{{2}{1}{}{}{}}
\newlabel{forza}{{3}{1}{}{}{}}
\newlabel{travailElect}{{4}{1}{}{}{}}
\newlabel{travailElect2}{{5}{1}{}{}{}}
\@writefile{toc}{\contentsline {section}{\numberline {II}Dispositivo experimental}{1}{}}
\@writefile{toc}{\contentsline {section}{\numberline {III}Determinac\IeC {\'\i }on de las l\IeC {\'\i }neas de campo}{1}{}}
\citation{Alonso1998}
\citation{Purcell1988}
\citation{Reitz1996}
\citation{Trelles1984}
\bibdata{electrostaticaNotes,Bibliografia}
\bibcite{Alonso1998}{{1}{}{{}}{{}}}
\bibcite{Purcell1988}{{2}{}{{}}{{}}}
\bibcite{Reitz1996}{{3}{}{{}}{{}}}
\bibcite{Trelles1984}{{4}{}{{}}{{}}}
\bibstyle{unsrt}
\providecommand\NAT@force@numbers{}\NAT@force@numbers
\@writefile{lof}{\contentsline {figure}{\numberline {1}{\ignorespaces  Esquema del dispositivo experimental propuesto (bandeja en vista superior). La bandeja de material aislante contiene agua. Las l\IeC {\'\i }neas A y B representan los electrodos met\IeC {\'a}licos. En el punto de coordenadas \(P(x,y)\), se mide el valor del potencial el\IeC {\'e}ctrico \(V(x,y)\) respecto al del electrodo B. El objeto circular es alternativamente un conductor o aislante con los que pueden obtenerse configuraciones alternativas del campo el\IeC {\'e}ctrico. }}{2}{}}
\newlabel{fig:1}{{1}{2}{}{}{}}
\@writefile{toc}{\contentsline {subsection}{\numberline {A}Efecto de conductores y aislantes}{2}{}}
\@writefile{toc}{\contentsline {section}{\numberline {}Referencias}{2}{}}
\newlabel{LastBibItem}{{4}{2}{}{}{}}
\newlabel{LastPage}{{}{2}{}{}{}}
